{
  "name": "",
  "css_prefix_text": "icon-",
  "css_use_suffix": false,
  "hinting": true,
  "units_per_em": 1000,
  "ascent": 850,
  "glyphs": [
    {
      "uid": "f0eac0958921fe45b85d01b79d76e86b",
      "css": "switch",
      "code": 59392,
      "src": "entypo"
    },
    {
      "uid": "ddecf5ad7935e3fb1b70dac6ed00d06a",
      "css": "language",
      "code": 59393,
      "src": "entypo"
    }
  ]
}