<?xml version="1.0" encoding="UTF-8" standalone="no"?>
<svg
   xmlns:dc="http://purl.org/dc/elements/1.1/"
   xmlns:cc="http://creativecommons.org/ns#"
   xmlns:rdf="http://www.w3.org/1999/02/22-rdf-syntax-ns#"
   xmlns:svg="http://www.w3.org/2000/svg"
   xmlns="http://www.w3.org/2000/svg"
   xmlns:sodipodi="http://sodipodi.sourceforge.net/DTD/sodipodi-0.dtd"
   xmlns:inkscape="http://www.inkscape.org/namespaces/inkscape"
   version="1.0"
   width="800"
   height="400"
   viewBox="0 0 600.00002 300.00001"
   preserveAspectRatio="xMidYMid meet"
   id="svg34"
   sodipodi:docname="telechat.svg"
   inkscape:version="0.92.2 (5c3e80d, 2017-08-06)"
   inkscape:export-filename="/home/luc/tmp/wemawema/img/telechat.png"
   inkscape:export-xdpi="1256"
   inkscape:export-ydpi="1256">
  <defs
     id="defs38" />
  <sodipodi:namedview
     pagecolor="#ffffff"
     bordercolor="#666666"
     borderopacity="1"
     objecttolerance="10"
     gridtolerance="10"
     guidetolerance="10"
     inkscape:pageopacity="0"
     inkscape:pageshadow="2"
     inkscape:window-width="1918"
     inkscape:window-height="1046"
     id="namedview36"
     showgrid="false"
     inkscape:zoom="4.3108218"
     inkscape:cx="401.54114"
     inkscape:cy="155.07721"
     inkscape:window-x="1680"
     inkscape:window-y="48"
     inkscape:window-maximized="0"
     inkscape:current-layer="svg34"
     units="px" />
  <metadata
     id="metadata2">
Created by potrace 1.10, written by Peter Selinger 2001-2011
<rdf:RDF>
  <cc:Work
     rdf:about="">
    <dc:format>image/svg+xml</dc:format>
    <dc:type
       rdf:resource="http://purl.org/dc/dcmitype/StillImage" />
    <dc:title />
  </cc:Work>
</rdf:RDF>
</metadata>
  <g
     transform="matrix(0.13601704,0,0,-0.13601704,-0.18008519,301.9129)"
     id="g32"
     style="fill:#000000;stroke:none">
    <path
       d="m 5,1880 c 0,-228 1,-322 2,-208 2,115 2,301 0,415 -1,115 -2,21 -2,-207 z"
       id="path4"
       inkscape:connector-curvature="0" />
    <path
       d="M 1095,2149 C 612,2138 431,2111 351,2037 228,1922 124,1347 190,1149 c 16,-47 19,-68 11,-93 -28,-92 -33,-461 -7,-581 41,-196 53,-215 153,-262 41,-19 107,-42 146,-53 66,-16 72,-20 69,-42 -2,-14 3,-30 11,-36 19,-16 302,-35 407,-27 47,4 119,18 160,32 73,24 85,25 410,29 571,6 2316.728,26 2450.728,70 108,36 133,75 180,289 38,175 50,324 50,645 0,329 -12,457 -66,690 -58.463,208.8578 -16.1129,168.2737 -135.1087,261.4082 -29.8482,18.6829 0.056,-0.9483 -54.5269,27.5918 -288,43 -2375.0924,61 -2880.0924,50 z m 2380.0924,-32 c 61,-3 138,-6 173,-7 34,-1 60,-5 58,-9 -3,-4 3,-7 12,-8 9,0 28,-4 41,-7 14,-3 29,-2 35,3 6,5 25,7 41,5 17,-3 42,-5 57,-5 15,-1 26,-4 24,-8 -2,-3 6,-7 17,-8 67,-4 33.6356,-23 88.6356,-40 34,-11 84,-76 85,-111 0,-13 5,-33 11,-44 6,-11 11,-36 11,-54 0,-19 4,-36 8,-39 4,-3 6,-14 3,-25 -3,-12 1,-22 11,-26 9,-3 13,-10 10,-15 -3,-5 -1,-33 5,-62 5,-28 13,-77 16,-108 3,-31 10,-71 15,-88 5,-19 5,-31 -1,-32 -43,-6 -109,7 -109,21 0,4 7,11 16,14 8,3 12,10 9,16 -4,6 -10,8 -14,6 -12,-8 -32,167 -21,178 13,13 13,26 -1,26 -5,0 -7,-4 -4,-10 3,-5 1,-10 -4,-10 -9,0 -15,40 -14,88 1,6 -3,12 -7,12 -8,0 -26,77 -21,94 6,25 -85,105 -129,112 -40,6 30.3644,14 -46.6356,20 -47,4 -91,11 -97,17 -9,6 -13,6 -13,-1 0,-5 -20,-10 -45,-10 -25,-1 -45,2 -45,7 0,4 -6,8 -12,8 -7,1 -62,4 -123,8 -60,4 -136,7 -169,6 -40,-2 -56,1 -51,9 5,7 -2,9 -21,4 -16,-4 -33,-7 -39,-6 -67,6 -2332.0924,-5 -2344.0924,-12 -4,-3 -54,-8 -111,-11 -57,-3 -106,-7 -109,-9 -4,-3 -36,-5 -71,-7 -36,-1 -74,-7 -85,-13 -11,-5 -23,-9 -27,-8 -3,1 -21,-13 -40,-30 -18,-18 -36,-31 -40,-30 -5,1 -8,-4 -8,-11 0,-7 -11,-37 -25,-65 -14,-29 -25,-60 -25,-70 0,-10 -5,-23 -12,-30 -6,-6 -15,-35 -20,-64 -5,-29 -10,-62 -12,-73 -3,-11 -5,-30 -5,-42 -1,-14 -11,-24 -31,-32 -32,-11 -42,-26 -12,-19 19,5 45,-15 34,-27 -7,-6 -8,-20 -14,-112 -3,-35 -5,-38 -31,-35 -18,2 -29,-3 -34,-14 -5,-15 -8,-14 -15,5 -6,17 -3,27 10,39 10,10 16,16 13,15 -2,-2 -10,2 -16,7 -17,14 -6,102 14,117 11,9 12,15 5,20 -12,9 -12,53 1,74 5,7 8,24 6,36 -1,13 1,28 6,35 4,7 8,22 9,33 1,27 25,108 36,120 4,5 8,19 8,32 0,33 30,93 64,131 16,17 26,32 20,32 -14,0 54,40 74,43 9,1 23,6 30,11 7,4 32,9 55,11 23,2 56,7 72,10 17,4 81,8 143,11 62,2 116,5 120,7 4,2 43,5 87,6 44,2 81,4 82,5 3,3 2330.0924,-3 2438.0924,-7 z m 145,-126 c 347,-32 280.6356,-43 316.6356,-61 50,-26 54,-32 78,-140 48,-221 54,-265 71,-585 15,-270 -27,-632 -85,-747 C 3978.728,415 2466,397 2401,403 c -43,5 -88,22 -191,76 -74,38 -163,76 -196,85 -107,28 -317,18 -434,-19 -25,-8 -92,-21 -148,-30 l -104,-15 -31,24 c -38,29 -96,46 -155,46 -32,0 -55,8 -93,35 -54,37 -71,43 -64,22 3,-6 -7,-20 -22,-29 -16,-9 -46,-30 -68,-45 -79,-56 -135,-83 -182,-89 -26,-3 -86,-10 -132,-16 -91,-11 -101,-7 -101,40 0,19 -4,22 -20,17 -11,-3 -20,-2 -20,3 0,6 -9,8 -20,5 -24,-6 -24,-4 -4,47 13,32 23,42 45,47 16,3 29,12 29,19 0,8 11,20 25,26 16,7 25,19 25,34 0,27 16,40 24,19 7,-18 62,-20 69,-2 2,7 14,-4 26,-24 18,-31 27,-36 54,-35 29,1 32,5 37,41 4,31 10,41 30,46 45,13 54,11 39,-7 -7,-8 -18.84442,-10.94561 -28.84442,-8.94561 -3.25,1 -8.88898,2.30929 -7.84577,16.9317 -1.26798,4.35046 -2.65515,1.74255 -4.34265,-0.75745 -2.37629,-5.36317 -3.44599,-14.27238 -5.44599,-28.27238 C 769.52117,682.95626 759,636 755,625 c -2,-7 -2.5,-10 -1.125,-9.125 1.375,0.875 4.625,5.625 10.125,14.125 4,7 7.75,15.25 10.625,23 2.875,7.75 4.875,15 5.375,20 2.45139,25.52929 1.36581,19.3026 4.22103,32.78412 7.33398,-0.49385 31.70234,8.05639 39.87228,13.58862 C 830.74629,688.69672 828.23968,651.83018 843,629 c 13,-18 16,-19 24,-5 5,10 26,18 53,20 45,4 110,26 110,36 0,3 -15,15 -33,26 -40,27 -67,104 -67,196 0,35 -3,67 -6,71 -11,10 -58,-13 -92,-46 l -32,-31 -128,-2 c -114,-1 -132,1 -172,21 -25,13 -56,25 -70,26 -28,4 -27,25 -14,-212 5,-105 4,-130 -10,-157 -9,-17 -16,-43 -16,-58 0,-23 3,-25 25,-20 20,5 23,3 18,-11 -6,-16 -5,-16 10,-4 9,7 18,11 18,7 1,-3 3,-10 4,-16 1,-5 3,-19 4,-30 0,-11 10,-29 22,-41 51,-51 -23,-34 -79,18 -33,31 -43,50 -56,105 -26,110 -30,221 -12,328 16,91 19,97 59,132 23,20 58,43 77,49 49,17 97,50 111,76 16,30 11,34 -36,23 -78,-18 -108,-13 -135,25 -15,21 -39,39 -62,46 -35,11 -37,14 -47,73 -19,108 12,318 75,509 53,161 88,182 339,198 88,6 201,14 250,19 125,11 2493.0924,5 2645.0924,-9 z m 582.6356,-668 c 2,-67 0,-72 -21,-77 -38,-10 -80,11 -80,38 0,13 3,22 7,20 4,-2 6,9 6,26 -1,17 -5,33 -10,36 -4,3 -8,11 -8,17 0,8 18,12 52,12 h 52 z M 250,1281 c 0,-22 5,-43 10,-46 6,-3 10,3 10,15 0,31 22,20 32,-15 6,-25 3,-34 -22,-60 -17,-17 -30,-41 -30,-53 0,-35 -19,-25 -40,21 -25,54 -25,92 0,117 11,11 20,29 20,40 0,11 5,20 10,20 6,0 10,-18 10,-39 z m 3943.728,-66 c 12,-9 20,-22 17,-29 -3,-7 -7,-87 -8,-177 -3,-159 -15,-299 -37,-444 -6,-38 -13,-84 -15,-100 -3,-17 -17,-67 -32,-111 -20,-60 -36,-89 -59,-108 -18,-15 -37,-25 -43,-21 -5,3 -10,1 -10,-5 0,-6 -4,-9 -9,-5 -5,3 -12,1 -16,-4 -3,-6 -13,-7 -21,-4 -9,3 -19,1 -23,-6 C 3919.728,173 2070,143 1721,142 c -118,-1 -228,-4 -245,-7 -24,-4 -27,-3 -11,4 16,8 17,10 3,10 -9,1 -19,-3 -22,-8 -7,-11 -130,-1 -134,10 -4,11 -23,12 -20,1 2,-4 -1,-8 -7,-10 -5,-2 -11,2 -13,8 -2,6 5,14 17,17 11,3 18,9 15,14 -3,5 0,9 7,9 7,0 9,3 6,6 -3,4 3,18 13,32 27,34 25,45 -15,81 -67,59 -159,79 -197,44 -14,-13 -41,-17 -113,-19 -52,-1 -98,-5 -104,-8 -5,-4 -12,-2 -16,3 -3,5 -15,8 -28,5 -12,-3 -35,-6 -52,-8 -16,-2 -38,-7 -48,-11 -10,-4 -21,-5 -24,-1 -4,3 -15,-2 -26,-11 -15,-13 -19,-14 -13,-3 5,9 2,8 -7,-2 -8,-10 -17,-15 -20,-11 -4,3 -7,1 -7,-5 0,-7 -5,-12 -11,-12 -15,0 -66,-56 -74,-81 -5,-16 -10,-18 -21,-8 -10,8 -14,8 -14,0 0,-7 -8,-8 -24,-1 -13,5 -26,6 -29,3 -3,-3 -20,5 -36,17 -17,11 -35,19 -40,15 -14,-8 -102,35 -95,46 3,5 -1,9 -8,9 -15,0 -58,80 -58,108 0,10 -4,22 -9,27 -5,6 -11,30 -14,55 -3,25 -9,72 -13,104 -5,44 -4,57 4,52 7,-4 12,-2 12,3 0,6 -6,11 -13,11 -11,0 -13,21 -12,89 3,94 7,111 32,111 9,0 13,6 10,15 -8,20 8,28 23,10 7,-8 19,-15 26,-15 10,0 13,-7 9,-22 -3,-13 -6,-32 -6,-43 1,-25 9,-206 10,-220 1,-5 6,-3 11,5 7,11 9,8 9,-15 0,-51 12,-91 37,-120 13,-15 21,-33 17,-39 -3,-6 -3,-8 1,-4 4,3 27,-3 51,-13 51,-22 95,-17 95,11 0,10 -6,20 -12,23 -19,7 42,28 72,25 14,-1 31,1 38,5 6,5 17,5 24,1 7,-4 8,-3 4,4 -7,11 9,10 76,-3 10,-2 20,0 23,5 3,4 24,18 47,30 57,30 138,82 138,89 0,4 15,15 34,25 27,14 38,16 55,7 11,-7 21,-15 21,-20 0,-11 57,-24 93,-21 15,1 34,-3 42,-10 7,-6 26,-12 42,-14 16,-1 27,-8 25,-15 -1,-7 2,-9 9,-6 16,11 58,-15 52,-31 -6,-17 9,-18 26,-2 11,11 13,11 7,0 -10,-17 2,-15 20,3 9,9 34,15 59,15 24,0 46,4 50,9 3,5 21,7 40,4 19,-3 35,-2 35,4 0,9 45,23 138,42 73,15 227,14 282,-3 25,-7 52,-11 60,-8 8,3 12,1 8,-3 -4,-4 22,-18 59,-30 37,-13 71,-29 77,-37 6,-7 30,-20 53,-27 23,-8 51,-22 61,-31 9,-9 24,-17 32,-18 82,-11 107,-16 118,-24 8,-7 12,-7 12,0 0,3 369.932,6.25 741.989,9.25 372.057,3 746.239,5.75 754.739,7.75 16,4 38,17 49,31 10,13 24,24 31,24 6,0 8,5 5,10 -4,6 -2,16 3,23 5,7 13,31 17,55 5,29 12,42 23,43 11,0 12,2 5,6 -7,2 -13,14 -13,24 0,11 4,18 9,15 4,-3 7,7 5,22 -6,53 8,162 22,162 19,0 28,20 15,33 -9,9 -11,8 -6,-5 5,-13 2,-18 -9,-18 -20,0 -11,58 14,80 12,11 15,22 9,45 l -8,30 3,-32 c 1,-18 -1,-30 -6,-27 -11,7 -10,52 2,59 12,8 13,60 1,102 -6,21 -5,35 2,43 9,10 9,11 -1,6 -9,-5 -12,5 -10,43 2,41 6,51 20,51 10,0 18,5 18,10 0,15 22,12 47,-5 z M 375,1176 c 0,0 11,-13 23,-28 l 24,-26 -21,-21 c -12,-12 -21,-33 -21,-47 0,-16 -5,-24 -12,-21 -8,3 -12,20 -11,47 2,47 -13,44 -19,-4 -2,-16 -9,-31 -15,-34 -22,-7 -27,28 -10,64 9,19 13,34 8,34 -10,0 -31,-45 -31,-66 0,-30 -25,-7 -28,25 -5,48 40,94 83,85 16,-3 30,-7 30,-8 z m 191,-75 c -42,-46 -176,-82 -176,-48 0,31 27,51 66,49 22,-1 53,2 69,7 51,16 60,14 41,-8 z m -313,-34 c 6,-17 112,-51 133,-43 53,20 16,-32 -45,-64 -16,-8 -20,-14 -12,-20 8,-5 10,-19 6,-42 -6,-30 -11,-36 -32,-34 -22,1 -24,4 -19,35 l 5,34 -25,-24 c -15,-13 -30,-34 -35,-46 -5,-13 -16,-23 -25,-23 -13,0 -15,6 -10,28 3,15 9,54 12,87 9,100 14,125 28,125 8,0 16,-6 19,-13 z M 895,913 c 4,-16 8,-45 10,-66 7,-75 34,-155 47,-141 4,3 9,1 13,-5 3,-6 0,-11 -7,-11 -11,0 -10,-2 0,-9 9,-5 3,-8 -20,-9 -59,-1 -68,-3 -68,-13 0,-5 -4,-9 -9,-9 -5,0 -11,15 -13,34 -2,19 0,32 5,29 11,-6 -1,38 -13,51 -5,4 -14,4 -22,0 -7,-5 -21,-7 -30,-6 -19,3 -58,-15 -57,-26 1,-4 1,-19 0,-34 -1,-23 -6,-28 -26,-28 -15,0 -25,6 -25,14 0,17 -55,59 -82,63 -9,2 -20,-2 -23,-7 -4,-6 -11,-8 -16,-4 -13,8 -51,-36 -45,-52 3,-7 -6,-15 -20,-18 -13,-4 -24,-11 -24,-17 0,-6 -7,-3 -16,5 -8,9 -13,19 -10,24 9,15 15,126 6,137 -7,9 -19,105 -13,105 17,0 81,-34 77,-41 -3,-5 11,-9 31,-9 26,0 34,-4 29,-12 -6,-10 -4,-10 7,0 8,8 47,12 116,12 h 103 l 38,35 c 20,19 40,35 43,35 4,0 10,-12 14,-27 z M 620,709 c 0,-12 -37,-12 -44,0 -7,11 14,20 32,13 6,-2 12,-8 12,-13 z m 646,-390 c 65,-33 74,-57 38,-103 -35,-44 -111,-96 -179,-122 -44,-17 -78,-19 -270,-19 -259,1 -275,3 -275,46 0,59 48,118 130,160 42,21 57,23 237,23 135,1 147.962,17.80038 190.3529,6.18932 C 1117.463,324.17901 1125,332 1133,339 c 17,17 75,8 133,-20 z"
       id="path6"
       inkscape:connector-curvature="0"
       sodipodi:nodetypes="ccccccccccccccscccccccccsccccccsssccscsccscccsscscsccccscscccccccsccccccscssscccccccccccccccccccscsccsccscscccccccccccccsccccccscscccscsccccccccccccscsccccccscsccccccccsccccccscsccccccccccccccssccssccscsccscsssscsccccccscccccccccsccscsscccccccccscccccssccscscccsscsccsscsccsccccsccccscccsccccsccsccccccccsscssccssccccccscccscscccsccssssccccccscccssccccssccsccssccccscccccccccccccsccscccccsccsssccccccsscccccscscscsccsccscsccsccccsccccc" />
    <path
       d="m 2058,2013 c 7,-3 16,-2 19,1 4,3 -2,6 -13,5 -11,0 -14,-3 -6,-6 z"
       id="path8"
       inkscape:connector-curvature="0" />
    <path
       d="m 620,664 c 0,-14 41,-67 47,-60 3,2 0,11 -6,18 -7,7 -18,22 -26,33 -8,11 -15,15 -15,9 z"
       id="path12"
       inkscape:connector-curvature="0" />
    <path
       d="m 680,616 c 0,-8 5,-18 10,-21 6,-3 10,-17 10,-31 0,-19 -5,-24 -25,-24 -14,0 -25,-4 -25,-9 0,-4 10,-7 23,-6 12,1 38,3 57,5 32,2 33,3 10,9 -26,7 -33,27 -17,49 7,9 4,12 -12,12 -31,0 -26,18 7,23 25,4 25,4 -5,6 -23,1 -33,-4 -33,-13 z"
       id="path14"
       inkscape:connector-curvature="0" />
    <path
       d="m 960,560 c 0,-5 7,-7 15,-4 8,4 15,8 15,10 0,2 -7,4 -15,4 -8,0 -15,-4 -15,-10 z"
       id="path18"
       inkscape:connector-curvature="0" />
    <path
       d="m 261,474 c 0,-11 3,-14 6,-6 3,7 2,16 -1,19 -3,4 -6,-2 -5,-13 z"
       id="path22"
       inkscape:connector-curvature="0" />
    <path
       d="m 2378,363 c 6,-2 18,-2 25,0 6,3 1,5 -13,5 -14,0 -19,-2 -12,-5 z"
       id="path24"
       inkscape:connector-curvature="0" />
    <path
       d="m 1330,324 c 0,-13 18,-39 24,-34 2,3 -2,14 -10,24 -8,11 -14,16 -14,10 z"
       id="path26"
       inkscape:connector-curvature="0" />
    <path
       d="m 1346,221 c -4,-5 3,-7 14,-4 23,6 26,13 6,13 -8,0 -17,-4 -20,-9 z"
       id="path28"
       inkscape:connector-curvature="0" />
    <path
       d="M 5,670 C 5,299 6,147 7,332 9,518 9,822 7,1007 6,1193 5,1041 5,670 Z"
       id="path30"
       inkscape:connector-curvature="0" />
  </g>
</svg>
